^D:\PROJEKTY\FACEDETECT\DIPTASKS.CPP|D:\PROJEKTY\FACEDETECT\FACEDETECTION.CPP|D:\PROJEKTY\FACEDETECT\OPENCV-LEARN.CPP
D:\PROJEKTY\FACEDETECT\X64\RELEASE\VC142.PDB
D:\PROJEKTY\FACEDETECT\X64\RELEASE\OPENCV-LEARN.OBJ
D:\PROJEKTY\FACEDETECT\X64\RELEASE\FACEDETECTION.OBJ
D:\PROJEKTY\FACEDETECT\X64\RELEASE\DIPTASKS.OBJ
^D:\PROJEKTY\FACEDETECT\DIPTASKS.CPP
D:\PROJEKTY\FACEDETECT\X64\RELEASE\VC142.PDB
^D:\PROJEKTY\FACEDETECT\FACEDETECTION.CPP|D:\PROJEKTY\FACEDETECT\OPENCV-LEARN.CPP
D:\PROJEKTY\FACEDETECT\X64\RELEASE\VC142.PDB
D:\PROJEKTY\FACEDETECT\X64\RELEASE\OPENCV-LEARN.OBJ
D:\PROJEKTY\FACEDETECT\X64\RELEASE\FACEDETECTION.OBJ
^D:\PROJEKTY\FACEDETECT\OPENCV-LEARN.CPP
D:\PROJEKTY\FACEDETECT\X64\RELEASE\VC142.PDB
^D:\PROJEKTY\FACEDETECT\FACEDETECTION.CPP
D:\PROJEKTY\FACEDETECT\X64\RELEASE\VC142.PDB
D:\PROJEKTY\FACEDETECT\X64\RELEASE\FACEDETECTION.OBJ
